-------------------------------------------------------------------------------
Test set: com.example.sala_query.SalaQueryApplicationTests
-------------------------------------------------------------------------------
Tests run: 1, Failures: 0, Errors: 0, Skipped: 0, Time elapsed: 36.456 s - in com.example.sala_query.SalaQueryApplicationTests
