com\example\prova_query\ProvaQueryApplication.class
com\example\prova_query\enteties\ProvaEntity.class
com\example\prova_query\service\ProvaService.class
com\example\prova_query\repo\ProvaRepo.class
com\example\dto\ProvaSchema.class
com\example\prova_query\controller\Routes.class
com\example\prova_query\provaConfig\Messaging.class
com\example\prova_query\consumer\ProvaConsumer.class
