C:\Users\xolid98\OneDrive - Instituto Superior de Engenharia do Porto\Desktop\ISEP\2semestre\INSIS\P3_INSIS\p3_insis\proposta_cmd\src\main\java\com\example\proposta_cmd\controller\Routes.java
C:\Users\xolid98\OneDrive - Instituto Superior de Engenharia do Porto\Desktop\ISEP\2semestre\INSIS\P3_INSIS\p3_insis\proposta_cmd\src\main\java\com\example\proposta_cmd\PropostaCmdApplication.java
C:\Users\xolid98\OneDrive - Instituto Superior de Engenharia do Porto\Desktop\ISEP\2semestre\INSIS\P3_INSIS\p3_insis\proposta_cmd\src\main\java\com\example\proposta_cmd\config\Messaging.java
C:\Users\xolid98\OneDrive - Instituto Superior de Engenharia do Porto\Desktop\ISEP\2semestre\INSIS\P3_INSIS\p3_insis\proposta_cmd\src\main\java\com\example\dto\PropostaSchema.java
