com\example\dto\PessoaSchema.class
com\example\pessoas_cmd\consumer\Consumer.class
com\example\pessoas_cmd\PessoasCmdApplication.class
com\example\pessoas_cmd\config\Messaging.class
com\example\dto\PropostaSchema.class
com\example\pessoas_cmd\controller\routes.class
