com\example\sala_query\entities\Sala.class
com\example\sala_query\consumer\Consumer.class
com\example\sala_query\entities\Reserva.class
com\example\sala_query\repo\SalaRepo.class
com\example\sala_query\salaConfig\Messaging.class
com\example\sala_query\service\SalaService.class
com\example\sala_query\SalaQueryApplication.class
com\example\sala_query\controller\Routes.class
com\example\sala_query\service\ReservaService.class
com\example\sala_query\repo\ReservaRepo.class
com\example\dto\ProvaSchema.class
com\example\dto\ReservaSchema.class
com\example\dto\SalaSchema.class
