com\example\dto\ProvaSchema.class
com\example\provaCmd\consumer\Consumer.class
com\example\provaCmd\ProvaCmdApplication.class
com\example\provaCmd\provaConfig\Messaging.class
com\example\provaCmd\routes\Publisher.class
